from,to,rate,compare,formula
0.5,0.5,957,=,
1,1,"1,143",=,
1.5,1.5,"1,329",=,
2,2,"1,515",=,
2.5,2.5,"1,701",=,
3,3,"1,860",=,
3.5,3.5,"2,019",=,
4,4,"2,178",=,
4.5,4.5,"2,337",=,
5,5,"2,496",=,
5.5,5.5,"2,628",=,
6,6,"2,760",=,
6.5,6.5,"2,892",=,
7,7,"3,024",=,
7.5,7.5,"3,156",=,
8,8,"3,288",=,
8.5,8.5,"3,420",=,
9,9,"3,552",=,
9.5,9.5,"3,684",=,
10,10,"3,816",=,
10.5,10.5,"3,871",=,
11,11,"3,926",=,
11.5,11.5,"3,981",=,
12,12,"4,036",=,
12.5,12.5,"4,091",=,
13,13,"4,146",=,
13.5,13.5,"4,201",=,
14,14,"4,256",=,
14.5,14.5,"4,311",=,
15,15,"4,366",=,
15.5,15.5,"4,421",=,
16,16,"4,476",=,
16.5,16.5,"4,531",=,
17,17,"4,586",=,
17.5,17.5,"4,641",=,
18,18,"4,696",=,
18.5,18.5,"4,751",=,
19,19,"4,806",=,
19.5,19.5,"4,861",=,
20,20,"4,916",=,
20.5,20.5,"5,038",=,
21,21,"5,160",=,
21.5,21.5,"5,282",=,
22,22,"5,404",=,
22.5,22.5,"5,526",=,
23,23,"5,648",=,
23.5,23.5,"5,770",=,
24,24,"5,892",=,
24.5,24.5,"6,014",=,
25,25,"6,136",=,
25.5,25.5,"6,258",=,
26,26,"6,380",=,
26.5,26.5,"6,502",=,
27,27,"6,624",=,
27.5,27.5,"6,746",=,
28,28,"6,868",=,
28.5,28.5,"6,990",=,
29,29,"7,112",=,
29.5,29.5,"7,234",=,
30,30,"7,356",<=,
30.5,70,208,>,
70.5,300,174,>,
300.5,99999,172,>,
